…
knitr::opts_chunk$set(
  fig.width = 6,
  fig.asp = 0.6,
  out.width = "90%")
```

*Write a short description of the dataset, noting the size and structure
of the data, describing some key variables, and giving illustrative
examples of observations.*

``` r
instacart
```

    ## # A tibble: 1,384,617 x 15
    ##    order_id product_id add_to_cart_order reordered user_id eval_set order_number
    ##       <int>      <int>             <int>     <int>   <int> <chr>           <int>
    ##  1        1      49302                 1         1  112108 train               4
    ##  2        1      11109                 2         1  112108 train               4
    ##  3        1      10246                 3         0  112108 train               4
    ##  4        1      49683                 4         0  112108 train               4
    ##  5        1      43633                 5         1  112108 train               4
    ##  6        1      13176                 6         0  112108 train               4
    ##  7        1      47209                 7         0  112108 train               4
    ##  8        1      22035                 8         1  112108 train               4
    ##  9       36      39612                 1         0   79431 train              23
    ## 10       36      19660                 2         1   79431 train              23
    ## # … with 1,384,607 more rows, and 8 more variables: order_dow <int>,
    ## #   order_hour_of_day <int>, days_since_prior_order <int>, product_name <chr>,
    ## #   aisle_id <int>, department_id <int>, aisle <chr>, department <chr>
…
Let’s see some of the more common departments and aisles that are
ordered:

``` r
instacart %>% 
  group_by(department, aisle) %>% 
  summarize(
    n_obs = n()
  ) %>% 
  arrange(desc(n_obs))
```

    ## `summarise()` has grouped output by 'department'. You can override using the `.groups` argument.

    ## # A tibble: 134 x 3
    ## # Groups:   department [21]
    ##    department aisle                          n_obs
    ##    <chr>      <chr>                          <int>
    ##  1 produce    fresh vegetables              150609
    ##  2 produce    fresh fruits                  150473
    ##  3 produce    packaged vegetables fruits     78493
    ##  4 dairy eggs yogurt                         55240
    ##  5 dairy eggs packaged cheese                41699
    ##  6 beverages  water seltzer sparkling water  36617
    ##  7 dairy eggs milk                           32644
    ##  8 snacks     chips pretzels                 31269
    ##  9 dairy eggs soy lactosefree                26240
    ## 10 bakery     bread                          23635
    ## # … with 124 more rows

*How many aisles are there, and which aisles are the most items ordered
from?*

``` r
instacart %>% 
  group_by(aisle) %>% 
  summarize(
    n_obs = n()
  ) %>% 
  arrange(desc(n_obs))
```

    ## # A tibble: 134 x 2
    ##    aisle                          n_obs
    ##    <chr>                          <int>
    ##  1 fresh vegetables              150609
    ##  2 fresh fruits                  150473
    ##  3 packaged vegetables fruits     78493
    ##  4 yogurt                         55240
    ##  5 packaged cheese                41699
    ##  6 water seltzer sparkling water  36617
    ##  7 milk                           32644
    ##  8 chips pretzels                 31269
    ##  9 soy lactosefree                26240
    ## 10 bread                          23635
    ## # … with 124 more rows
…
    ## 
    ## ── Column specification ────────────────────────────────────────────────────────
    ## cols(
    ##   .default = col_double(),
    ##   day = col_character()
    ## )
    ## ℹ Use `spec()` for the full column specifications.

``` r
accel_df %>% 
  group_by(day_id) %>% 
  summarize(n_obs = n())
```

    ## # A tibble: 35 x 2
    ##    day_id n_obs
    ##     <dbl> <int>
    ##  1      1  1440
    ##  2      2  1440
    ##  3      3  1440
    ##  4      4  1440
    ##  5      5  1440
    ##  6      6  1440
    ##  7      7  1440
    ##  8      8  1440
    ##  9      9  1440
    ## 10     10  1440
    ## # … with 25 more rows
…
There are discrete times of day in which activity is consistently
increased.

## Problem 3

Load the NY NOAA data:

``` r
library(p8105.datasets)
data("ny_noaa")
ny_noaa
```

    ## # A tibble: 2,595,176 x 7
    ##    id          date        prcp  snow  snwd tmax  tmin 
    ##    <chr>       <date>     <int> <int> <int> <chr> <chr>
    ##  1 US1NYAB0001 2007-11-01    NA    NA    NA <NA>  <NA> 
    ##  2 US1NYAB0001 2007-11-02    NA    NA    NA <NA>  <NA> 
    ##  3 US1NYAB0001 2007-11-03    NA    NA    NA <NA>  <NA> 
    ##  4 US1NYAB0001 2007-11-04    NA    NA    NA <NA>  <NA> 
    ##  5 US1NYAB0001 2007-11-05    NA    NA    NA <NA>  <NA> 
    ##  6 US1NYAB0001 2007-11-06    NA    NA    NA <NA>  <NA> 
    ##  7 US1NYAB0001 2007-11-07    NA    NA    NA <NA>  <NA> 
    ##  8 US1NYAB0001 2007-11-08    NA    NA    NA <NA>  <NA> 
    ##  9 US1NYAB0001 2007-11-09    NA    NA    NA <NA>  <NA> 
    ## 10 US1NYAB0001 2007-11-10    NA    NA    NA <NA>  <NA> 
    ## # … with 2,595,166 more rows

This is a tibble with 2.59 million rows, containing data on
precipitation and temperature for various weather stations

``` r
ny_noaa %>% 
  group_by(id) %>% 
  summarize(n_obs = n())
```

    ## # A tibble: 747 x 2
    ##    id          n_obs
    ##    <chr>       <int>
    ##  1 US1NYAB0001  1157
    ##  2 US1NYAB0006   852
    ##  3 US1NYAB0010   822
    ##  4 US1NYAB0016   214
    ##  5 US1NYAB0017   459
    ##  6 US1NYAB0021   365
    ##  7 US1NYAB0022   273
    ##  8 US1NYAB0023   365
    ##  9 US1NYAB0025   215
    ## 10 US1NYAL0002   549
    ## # … with 737 more rows
…
``` r
ny_noaa %>% 
    group_by(snow) %>% 
  summarize(
    n_obs = n()
  ) %>% 
  mutate(
    order_rank = min_rank(-n_obs)
    )%>% 
      arrange(order_rank)
```

    ## # A tibble: 282 x 3
    ##     snow   n_obs order_rank
    ##    <int>   <int>      <int>
    ##  1     0 2008508          1
    ##  2    NA  381221          2
    ##  3    25   31022          3
    ##  4    13   23095          4
    ##  5    51   18274          5
    ##  6    76   10173          6
    ##  7     8    9962          7
    ##  8     5    9748          8
    ##  9    38    9197          9
    ## 10     3    8790         10
    ## # … with 272 more rows
…
